…
To simplify the analysis, let’s look at a composite SAT score:

``` r
## NOTE: No need to edit this
df_composite <-
  df_sat %>%
  mutate(both_SAT = math_SAT + verb_SAT)

df_composite
```

    ## # A tibble: 105 × 6
    ##    high_GPA math_SAT verb_SAT comp_GPA univ_GPA both_SAT
    ##       <dbl>    <dbl>    <dbl>    <dbl>    <dbl>    <dbl>
    ##  1     3.45      643      589     3.76     3.52     1232
    ##  2     2.78      558      512     2.87     2.91     1070
    ##  3     2.52      583      503     2.54     2.4      1086
    ##  4     3.67      685      602     3.83     3.47     1287
    ##  5     3.24      592      538     3.29     3.47     1130
    ##  6     2.1       562      486     2.64     2.37     1048
    ##  7     2.82      573      548     2.86     2.4      1121
    ##  8     2.36      559      536     2.03     2.24     1095
    ##  9     2.42      552      583     2.81     3.02     1135
    ## 10     3.51      617      591     3.41     3.32     1208
    ## # … with 95 more rows
…
*Hint*: One way to do this is to first *pivot* `df_composite`. ”

``` r
df_pivot <-
  df_composite %>%
  pivot_longer(
    names_to = c("score_type"),
    values_to = "value",
    cols = c(- univ_GPA)
  )

df_pivot
```

    ## # A tibble: 525 × 3
    ##    univ_GPA score_type   value
    ##       <dbl> <chr>        <dbl>
    ##  1     3.52 high_GPA      3.45
    ##  2     3.52 math_SAT    643   
    ##  3     3.52 verb_SAT    589   
    ##  4     3.52 comp_GPA      3.76
    ##  5     3.52 both_SAT   1232   
    ##  6     2.91 high_GPA      2.78
    ##  7     2.91 math_SAT    558   
    ##  8     2.91 verb_SAT    512   
    ##  9     2.91 comp_GPA      2.87
    ## 10     2.91 both_SAT   1070   
    ## # … with 515 more rows
…
``` r
df_composite
```

    ## # A tibble: 105 × 6
    ##    high_GPA math_SAT verb_SAT comp_GPA univ_GPA both_SAT
    ##       <dbl>    <dbl>    <dbl>    <dbl>    <dbl>    <dbl>
    ##  1     3.45      643      589     3.76     3.52     1232
    ##  2     2.78      558      512     2.87     2.91     1070
    ##  3     2.52      583      503     2.54     2.4      1086
    ##  4     3.67      685      602     3.83     3.47     1287
    ##  5     3.24      592      538     3.29     3.47     1130
    ##  6     2.1       562      486     2.64     2.37     1048
    ##  7     2.82      573      548     2.86     2.4      1121
    ##  8     2.36      559      536     2.03     2.24     1095
    ##  9     2.42      552      583     2.81     3.02     1135
    ## 10     3.51      617      591     3.41     3.32     1208
    ## # … with 95 more rows
…
